{"failedCount":0,"prefixedPath":"src\/test\/java\/reqres.feature","packageQualifiedName":"src.test.java.reqres","loopIndex":-1,"relativePath":"src\/test\/java\/reqres.feature","scenarioResults":[{"sectionIndex":0,"stepResults":[{"result":{"nanos":194003700,"millis":194.0037,"status":"passed"},"step":{"line":3,"prefix":"Given","index":0,"text":"url \"https:\/\/reqres.in\/api\/users?page=2\""}},{"result":{"nanos":1364369800,"millis":1364.3698,"status":"passed"},"step":{"line":4,"prefix":"When","index":1,"text":"method GET"},"stepLog":"17:09:47.458 request:\n1 > GET https:\/\/reqres.in\/api\/users?page=2\n1 > Host: reqres.in\n1 > Connection: Keep-Alive\n1 > User-Agent: Apache-HttpClient\/4.5.13 (Java\/18.0.2)\n1 > Accept-Encoding: gzip,deflate\n\n\n17:09:48.114 response time in milliseconds: 651\n1 < 200\n1 < Date: Thu, 11 Aug 2022 10:09:49 GMT\n1 < Content-Type: application\/json; charset=utf-8\n1 < Transfer-Encoding: chunked\n1 < Connection: keep-alive\n1 < X-Powered-By: Express\n1 < Access-Control-Allow-Origin: *\n1 < Etag: W\/\"406-ut0vzoCuidvyMf8arZpMpJ6ZRDw\"\n1 < Via: 1.1 vegur\n1 < Cache-Control: max-age=14400\n1 < CF-Cache-Status: HIT\n1 < Age: 654\n1 < Expect-CT: max-age=604800, report-uri=\"https:\/\/report-uri.cloudflare.com\/cdn-cgi\/beacon\/expect-ct\"\n1 < Report-To: {\"endpoints\":[{\"url\":\"https:\\\/\\\/a.nel.cloudflare.com\\\/report\\\/v3?s=e0Mfj2XewoI74Bu%2BQC4DLXqNlgkUfV7g9llD%2FhoeOkgDFr2FAPJyWT2BOQBQwBXCmfhoJrrJXk1Z9VVWZdcu5vk9yTYWn%2BcbddZm4o9tmTX2lgMlZghlcokZdw%3D%3D\"}],\"group\":\"cf-nel\",\"max_age\":604800}\n1 < NEL: {\"success_fraction\":0,\"report_to\":\"cf-nel\",\"max_age\":604800}\n1 < Vary: Accept-Encoding\n1 < Server: cloudflare\n1 < CF-RAY: 73902d89ef4046bb-SIN\n{\"page\":2,\"per_page\":6,\"total\":12,\"total_pages\":2,\"data\":[{\"id\":7,\"email\":\"michael.lawson@reqres.in\",\"first_name\":\"Michael\",\"last_name\":\"Lawson\",\"avatar\":\"https:\/\/reqres.in\/img\/faces\/7-image.jpg\"},{\"id\":8,\"email\":\"lindsay.ferguson@reqres.in\",\"first_name\":\"Lindsay\",\"last_name\":\"Ferguson\",\"avatar\":\"https:\/\/reqres.in\/img\/faces\/8-image.jpg\"},{\"id\":9,\"email\":\"tobias.funke@reqres.in\",\"first_name\":\"Tobias\",\"last_name\":\"Funke\",\"avatar\":\"https:\/\/reqres.in\/img\/faces\/9-image.jpg\"},{\"id\":10,\"email\":\"byron.fields@reqres.in\",\"first_name\":\"Byron\",\"last_name\":\"Fields\",\"avatar\":\"https:\/\/reqres.in\/img\/faces\/10-image.jpg\"},{\"id\":11,\"email\":\"george.edwards@reqres.in\",\"first_name\":\"George\",\"last_name\":\"Edwards\",\"avatar\":\"https:\/\/reqres.in\/img\/faces\/11-image.jpg\"},{\"id\":12,\"email\":\"rachel.howell@reqres.in\",\"first_name\":\"Rachel\",\"last_name\":\"Howell\",\"avatar\":\"https:\/\/reqres.in\/img\/faces\/12-image.jpg\"}],\"support\":{\"url\":\"https:\/\/reqres.in\/#support-heading\",\"text\":\"To keep ReqRes free, contributions towards server costs are appreciated!\"}}\n\n"},{"result":{"nanos":14342800,"millis":14.3428,"status":"passed"},"step":{"line":5,"prefix":"Then","index":2,"text":"status 200"}}],"executorName":"main","line":2,"name":"Get list user reqres","description":"","durationMillis":1572.7163,"startTime":1660212586578,"failed":false,"refId":"[1:2]","endTime":1660212588189,"exampleIndex":-1}],"callDepth":0,"name":"Belajar QA Karate Test","description":"","resultDate":"2022-08-11 05:09:48 PM","durationMillis":1572.7163,"passedCount":1}